aim_train

by k0wi (k0wika@freemail.hu)
====================================

Practice your aim or just HAVE FUN!!!!

====================================
http://evilinside.atw.hu
------------------------------------
IRC: #evilinside.map @ Quakenet

(Press FIRE to continue.)