=====================================
AIM_SPEEDBALL_UPC
=====================================
map created by Azke.
The Terrorists: plant the bomb
 or kill all the counter-terrorists.
The Counter-Terrorists: Defuse
 the bomb or kill all the terrorists.
=====================================
you can contact me via msn:
lord_gj@hotmail.com