-----------------
Awp arena
-----------------
Rules: Kill kill kill with the
awp. Terrorists can bomb the
middle area and CTs have to stop
them. There are two drivable
"boxcars" for your enjoyment.
------------------

-Orkinman
adfuxor@hotmail.com
ICQ: 44844012
gamesnet irc #ddl
and #mapcore

------------------